{
  "layout": [
    {
      "displayName": "Adaptive Region",
      "width": 12,
      "resources": {
        "en": {
          "displayName": "Adaptive Region"
        }
      },
      "slot": "header-with-notification-device-slot",
      "type": "header",
      "structure": "slot"
    },
    {
      "components": [
        "profile-address-book-breadcrumb",
        "profile-address-form",
        "back-to-top-link"
      ],
      "width": 12,
      "type": "main"
    },
    {
      "components": [
        "footer"
      ],
      "width": 12,
      "type": "footer"
    }
  ],
  "settings": {
    "pageDisplayName": {
      "en": {
        "pageDisplayName": "Add Profile Address"
      }
    }
  },
  "defaultPage": false,
  "address": "add-profile-address",
  "title": "Add Profile Address",
  "shortName": "profile",
  "pageTypeDisplayName": {
    "en": {
      "pageTypeDisplayName": "profile"
    }
  },
  "secured": true
}