{
  "layout": [
    {
      "displayName": "Adaptive Region",
      "width": 12,
      "resources": {
        "en": {
          "displayName": "Adaptive Region"
        }
      },
      "slot": "re200011",
      "type": "header",
      "structure": "slot"
    },
    {
      "displayName": "Adaptive Region",
      "width": 12,
      "resources": {
        "en": {
          "displayName": "Adaptive Region"
        }
      },
      "slot": "re200014",
      "type": "main",
      "structure": "slot"
    },
    {
      "components": [
        "footer"
      ],
      "width": 12,
      "type": "footer"
    }
  ],
  "settings": {
    "pageDisplayName": {
      "en": {
        "pageDisplayName": "Product Listing"
      }
    }
  },
  "defaultPage": true,
  "address": "category",
  "title": "LFLB-Collection-Layout",
  "shortName": "category",
  "pageTypeDisplayName": {
    "en": {
      "pageTypeDisplayName": "category"
    }
  }
}