{
  "layout": [
    {
      "displayName": "Adaptive Region",
      "width": 12,
      "resources": {
        "en": {
          "displayName": "Adaptive Region"
        }
      },
      "slot": "header-with-notification-device-slot",
      "type": "header",
      "structure": "slot"
    },
    {
      "components": [
        "returns-refunds-web-content"
      ],
      "width": 12,
      "type": "main"
    },
    {
      "components": [
        "footer"
      ],
      "width": 12,
      "type": "footer"
    }
  ],
  "settings": {
    "pageDisplayName": {
      "en": {
        "pageDisplayName": "Returns & Refunds"
      }
    }
  },
  "address": "returns-refunds",
  "title": "Returns & Refunds",
  "shortName": "article",
  "pageTypeDisplayName": {
    "en": {
      "pageTypeDisplayName": "article"
    }
  }
}